digraph "Program_Queue"
{
 // LATEX_PDF_SIZE
  edge [fontname="Helvetica",fontsize="10",labelfontname="Helvetica",labelfontsize="10"];
  node [fontname="Helvetica",fontsize="10",shape=record];
  Node1 [label="Program_Queue",height=0.2,width=0.4,color="black", fillcolor="grey75", style="filled", fontcolor="black",tooltip="A simple program to test the Queue."];
  Node2 -> Node1 [dir="back",color="darkorchid3",fontsize="10",style="dashed",label=" m_dataArr" ,fontname="Helvetica"];
  Node2 [label="ArrayQueue\< int \>",height=0.2,width=0.4,color="black", fillcolor="white", style="filled",URL="$classArrayQueue.html",tooltip=" "];
  Node3 -> Node2 [dir="back",color="darkorchid3",fontsize="10",style="dashed",label=" m_vector" ,fontname="Helvetica"];
  Node3 [label="SmartDynamicArray\<\l int \>",height=0.2,width=0.4,color="black", fillcolor="white", style="filled",URL="$classSmartDynamicArray.html",tooltip=" "];
  Node4 -> Node3 [dir="back",color="midnightblue",fontsize="10",style="solid",fontname="Helvetica"];
  Node4 [label="ILinearDataStructure\l\< int \>",height=0.2,width=0.4,color="black", fillcolor="white", style="filled",URL="$classILinearDataStructure.html",tooltip=" "];
  Node5 -> Node1 [dir="back",color="darkorchid3",fontsize="10",style="dashed",label=" m_dataLink" ,fontname="Helvetica"];
  Node5 [label="LinkedQueue\< int \>",height=0.2,width=0.4,color="black", fillcolor="white", style="filled",URL="$classLinkedQueue.html",tooltip=" "];
  Node6 -> Node5 [dir="back",color="darkorchid3",fontsize="10",style="dashed",label=" m_list" ,fontname="Helvetica"];
  Node6 [label="LinkedList\< int \>",height=0.2,width=0.4,color="black", fillcolor="white", style="filled",URL="$classLinkedList.html",tooltip=" "];
  Node4 -> Node6 [dir="back",color="midnightblue",fontsize="10",style="solid",fontname="Helvetica"];
  Node7 -> Node6 [dir="back",color="darkorchid3",fontsize="10",style="dashed",label=" m_ptrLast\nm_ptrFirst" ,fontname="Helvetica"];
  Node7 [label="DoublyLinkedListNode\l\< int \>",height=0.2,width=0.4,color="black", fillcolor="white", style="filled",URL="$structDoublyLinkedListNode.html",tooltip=" "];
  Node7 -> Node7 [dir="back",color="darkorchid3",fontsize="10",style="dashed",label=" m_ptrPrev\nm_ptrNext" ,fontname="Helvetica"];
}
