digraph "HashTableTester"
{
 // LATEX_PDF_SIZE
  edge [fontname="Helvetica",fontsize="10",labelfontname="Helvetica",labelfontsize="10"];
  node [fontname="Helvetica",fontsize="10",shape=record];
  Node1 [label="HashTableTester",height=0.2,width=0.4,color="black", fillcolor="grey75", style="filled", fontcolor="black",tooltip="TESTER for the HashTable."];
  Node2 -> Node1 [dir="back",color="midnightblue",fontsize="10",style="solid",fontname="Helvetica"];
  Node2 [label="TesterBase",height=0.2,width=0.4,color="black", fillcolor="white", style="filled",URL="$classTesterBase.html",tooltip="The base class for unit tests."];
}
