digraph "Sorting/InsertionSort" {
  compound=true
  node [ fontsize="10", fontname="Helvetica"];
  edge [ labelfontsize="10", labelfontname="Helvetica"];
  subgraph clusterdir_a11301dcaf5c826c1ee562efd8276fb9 {
    graph [ bgcolor="#ddddee", pencolor="black", label="Sorting" fontname="Helvetica", fontsize="10", URL="dir_a11301dcaf5c826c1ee562efd8276fb9.html"]
  dir_626f8cd9c5517b8f72b4d94dea5c3b8e [shape=box, label="InsertionSort", style="filled", fillcolor="#eeeeff", pencolor="black", URL="dir_626f8cd9c5517b8f72b4d94dea5c3b8e.html"];
  }
  dir_d403198d2aa38de87971f2789d60a3dd [shape=box label="Exceptions" URL="dir_d403198d2aa38de87971f2789d60a3dd.html"];
  dir_b05a5fa85f84bfc9013183c9d87f9a36 [shape=box label="Utilities" URL="dir_b05a5fa85f84bfc9013183c9d87f9a36.html"];
  dir_637a9103604c27616f1c15f6b161d1ab [shape=box label="cutest" URL="dir_637a9103604c27616f1c15f6b161d1ab.html"];
  dir_637a9103604c27616f1c15f6b161d1ab->dir_b05a5fa85f84bfc9013183c9d87f9a36 [headlabel="2", labeldistance=1.5 headhref="dir_000000_000021.html"];
  dir_626f8cd9c5517b8f72b4d94dea5c3b8e->dir_d403198d2aa38de87971f2789d60a3dd [headlabel="5", labeldistance=1.5 headhref="dir_000015_000011.html"];
  dir_626f8cd9c5517b8f72b4d94dea5c3b8e->dir_b05a5fa85f84bfc9013183c9d87f9a36 [headlabel="1", labeldistance=1.5 headhref="dir_000015_000021.html"];
  dir_626f8cd9c5517b8f72b4d94dea5c3b8e->dir_637a9103604c27616f1c15f6b161d1ab [headlabel="1", labeldistance=1.5 headhref="dir_000015_000000.html"];
}
