digraph "Graphical Class Hierarchy"
{
 // LATEX_PDF_SIZE
  edge [fontname="Helvetica",fontsize="10",labelfontname="Helvetica",labelfontsize="10"];
  node [fontname="Helvetica",fontsize="10",shape=record];
  rankdir="LR";
  Node0 [label="ILinearDataStructure\l\< int \>",height=0.2,width=0.4,color="black", fillcolor="white", style="filled",URL="$classILinearDataStructure.html",tooltip=" "];
  Node0 -> Node1 [dir="back",color="midnightblue",fontsize="10",style="solid",fontname="Helvetica"];
  Node1 [label="LinkedList\< int \>",height=0.2,width=0.4,color="black", fillcolor="white", style="filled",URL="$classLinkedList.html",tooltip=" "];
  Node0 -> Node2 [dir="back",color="midnightblue",fontsize="10",style="solid",fontname="Helvetica"];
  Node2 [label="SmartDynamicArray\<\l int \>",height=0.2,width=0.4,color="black", fillcolor="white", style="filled",URL="$classSmartDynamicArray.html",tooltip=" "];
  Node0 -> Node3 [dir="back",color="midnightblue",fontsize="10",style="solid",fontname="Helvetica"];
  Node3 [label="SmartFixedArray\< int \>",height=0.2,width=0.4,color="black", fillcolor="white", style="filled",URL="$classSmartFixedArray.html",tooltip=" "];
}
