digraph "DataStructure/SmartFixedArray/SmartFixedArray.hpp"
{
 // LATEX_PDF_SIZE
  edge [fontname="Helvetica",fontsize="10",labelfontname="Helvetica",labelfontsize="10"];
  node [fontname="Helvetica",fontsize="10",shape=record];
  Node1 [label="DataStructure/SmartFixed\lArray/SmartFixedArray.hpp",height=0.2,width=0.4,color="black", fillcolor="grey75", style="filled", fontcolor="black",tooltip=" "];
  Node1 -> Node2 [color="midnightblue",fontsize="10",style="solid",fontname="Helvetica"];
  Node2 [label="../Interfaces/ILinearData\lStructure.hpp",height=0.2,width=0.4,color="black", fillcolor="white", style="filled",URL="$ILinearDataStructure_8hpp.html",tooltip=" "];
  Node2 -> Node3 [color="midnightblue",fontsize="10",style="solid",fontname="Helvetica"];
  Node3 [label="ostream",height=0.2,width=0.4,color="grey75", fillcolor="white", style="filled",tooltip=" "];
  Node1 -> Node4 [color="midnightblue",fontsize="10",style="solid",fontname="Helvetica"];
  Node4 [label="../../Exceptions/ItemNot\lFoundException.hpp",height=0.2,width=0.4,color="black", fillcolor="white", style="filled",URL="$ItemNotFoundException_8hpp.html",tooltip=" "];
  Node4 -> Node5 [color="midnightblue",fontsize="10",style="solid",fontname="Helvetica"];
  Node5 [label="stdexcept",height=0.2,width=0.4,color="grey75", fillcolor="white", style="filled",tooltip=" "];
  Node4 -> Node6 [color="midnightblue",fontsize="10",style="solid",fontname="Helvetica"];
  Node6 [label="string",height=0.2,width=0.4,color="grey75", fillcolor="white", style="filled",tooltip=" "];
  Node1 -> Node7 [color="midnightblue",fontsize="10",style="solid",fontname="Helvetica"];
  Node7 [label="../../Exceptions/NotImplemented\lException.hpp",height=0.2,width=0.4,color="black", fillcolor="white", style="filled",URL="$NotImplementedException_8hpp.html",tooltip=" "];
  Node7 -> Node5 [color="midnightblue",fontsize="10",style="solid",fontname="Helvetica"];
  Node7 -> Node6 [color="midnightblue",fontsize="10",style="solid",fontname="Helvetica"];
  Node1 -> Node8 [color="midnightblue",fontsize="10",style="solid",fontname="Helvetica"];
  Node8 [label="../../Exceptions/Structure\lFullException.hpp",height=0.2,width=0.4,color="black", fillcolor="white", style="filled",URL="$StructureFullException_8hpp.html",tooltip=" "];
  Node8 -> Node5 [color="midnightblue",fontsize="10",style="solid",fontname="Helvetica"];
  Node8 -> Node6 [color="midnightblue",fontsize="10",style="solid",fontname="Helvetica"];
  Node1 -> Node9 [color="midnightblue",fontsize="10",style="solid",fontname="Helvetica"];
  Node9 [label="../../Exceptions/Structure\lEmptyException.hpp",height=0.2,width=0.4,color="black", fillcolor="white", style="filled",URL="$StructureEmptyException_8hpp.html",tooltip=" "];
  Node9 -> Node5 [color="midnightblue",fontsize="10",style="solid",fontname="Helvetica"];
  Node9 -> Node6 [color="midnightblue",fontsize="10",style="solid",fontname="Helvetica"];
  Node1 -> Node10 [color="midnightblue",fontsize="10",style="solid",fontname="Helvetica"];
  Node10 [label="../../Exceptions/Invalid\lIndexException.hpp",height=0.2,width=0.4,color="black", fillcolor="white", style="filled",URL="$InvalidIndexException_8hpp.html",tooltip=" "];
  Node10 -> Node5 [color="midnightblue",fontsize="10",style="solid",fontname="Helvetica"];
  Node10 -> Node6 [color="midnightblue",fontsize="10",style="solid",fontname="Helvetica"];
  Node1 -> Node11 [color="midnightblue",fontsize="10",style="solid",fontname="Helvetica"];
  Node11 [label="../../Exceptions/Nullptr\lException.hpp",height=0.2,width=0.4,color="black", fillcolor="white", style="filled",URL="$NullptrException_8hpp.html",tooltip=" "];
  Node11 -> Node5 [color="midnightblue",fontsize="10",style="solid",fontname="Helvetica"];
  Node11 -> Node6 [color="midnightblue",fontsize="10",style="solid",fontname="Helvetica"];
  Node1 -> Node12 [color="midnightblue",fontsize="10",style="solid",fontname="Helvetica"];
  Node12 [label="../../Utilities/StringUtil.hpp",height=0.2,width=0.4,color="black", fillcolor="white", style="filled",URL="$StringUtil_8hpp.html",tooltip=" "];
  Node12 -> Node6 [color="midnightblue",fontsize="10",style="solid",fontname="Helvetica"];
  Node12 -> Node13 [color="midnightblue",fontsize="10",style="solid",fontname="Helvetica"];
  Node13 [label="sstream",height=0.2,width=0.4,color="grey75", fillcolor="white", style="filled",tooltip=" "];
  Node12 -> Node14 [color="midnightblue",fontsize="10",style="solid",fontname="Helvetica"];
  Node14 [label="vector",height=0.2,width=0.4,color="grey75", fillcolor="white", style="filled",tooltip=" "];
  Node1 -> Node15 [color="midnightblue",fontsize="10",style="solid",fontname="Helvetica"];
  Node15 [label="iostream",height=0.2,width=0.4,color="grey75", fillcolor="white", style="filled",tooltip=" "];
}
