digraph "DataStructure/SmartTable/SmartTable.hpp"
{
 // LATEX_PDF_SIZE
  edge [fontname="Helvetica",fontsize="10",labelfontname="Helvetica",labelfontsize="10"];
  node [fontname="Helvetica",fontsize="10",shape=record];
  Node1 [label="DataStructure/SmartTable\l/SmartTable.hpp",height=0.2,width=0.4,color="black", fillcolor="grey75", style="filled", fontcolor="black",tooltip=" "];
  Node1 -> Node2 [dir="back",color="midnightblue",fontsize="10",style="solid",fontname="Helvetica"];
  Node2 [label="DataStructure/HashTable\l/HashTable.hpp",height=0.2,width=0.4,color="black", fillcolor="white", style="filled",URL="$HashTable_8hpp.html",tooltip=" "];
  Node2 -> Node3 [dir="back",color="midnightblue",fontsize="10",style="solid",fontname="Helvetica"];
  Node3 [label="DataStructure/HashTable\l/HashTableTester.hpp",height=0.2,width=0.4,color="black", fillcolor="white", style="filled",URL="$HashTableTester_8hpp.html",tooltip=" "];
  Node3 -> Node4 [dir="back",color="midnightblue",fontsize="10",style="solid",fontname="Helvetica"];
  Node4 [label="main.cpp",height=0.2,width=0.4,color="black", fillcolor="white", style="filled",URL="$main_8cpp.html",tooltip=" "];
  Node2 -> Node5 [dir="back",color="midnightblue",fontsize="10",style="solid",fontname="Helvetica"];
  Node5 [label="TestPrograms/Program\l_HT.hpp",height=0.2,width=0.4,color="black", fillcolor="white", style="filled",URL="$Program__HT_8hpp.html",tooltip=" "];
  Node5 -> Node4 [dir="back",color="midnightblue",fontsize="10",style="solid",fontname="Helvetica"];
  Node5 -> Node6 [dir="back",color="midnightblue",fontsize="10",style="solid",fontname="Helvetica"];
  Node6 [label="TestPrograms/Program\l_HT.cpp",height=0.2,width=0.4,color="black", fillcolor="white", style="filled",URL="$Program__HT_8cpp.html",tooltip=" "];
}
