digraph "DataStructure/Stack/StackTester.hpp"
{
 // LATEX_PDF_SIZE
  edge [fontname="Helvetica",fontsize="10",labelfontname="Helvetica",labelfontsize="10"];
  node [fontname="Helvetica",fontsize="10",shape=record];
  Node1 [label="DataStructure/Stack\l/StackTester.hpp",height=0.2,width=0.4,color="black", fillcolor="grey75", style="filled", fontcolor="black",tooltip=" "];
  Node1 -> Node2 [color="midnightblue",fontsize="10",style="solid",fontname="Helvetica"];
  Node2 [label="iostream",height=0.2,width=0.4,color="grey75", fillcolor="white", style="filled",tooltip=" "];
  Node1 -> Node3 [color="midnightblue",fontsize="10",style="solid",fontname="Helvetica"];
  Node3 [label="string",height=0.2,width=0.4,color="grey75", fillcolor="white", style="filled",tooltip=" "];
  Node1 -> Node4 [color="midnightblue",fontsize="10",style="solid",fontname="Helvetica"];
  Node4 [label="ArrayStack.hpp",height=0.2,width=0.4,color="black", fillcolor="white", style="filled",URL="$ArrayStack_8hpp.html",tooltip=" "];
  Node4 -> Node5 [color="midnightblue",fontsize="10",style="solid",fontname="Helvetica"];
  Node5 [label="../SmartDynamicArray\l/SmartDynamicArray.hpp",height=0.2,width=0.4,color="black", fillcolor="white", style="filled",URL="$SmartDynamicArray_8hpp.html",tooltip=" "];
  Node5 -> Node6 [color="midnightblue",fontsize="10",style="solid",fontname="Helvetica"];
  Node6 [label="../Interfaces/ILinearData\lStructure.hpp",height=0.2,width=0.4,color="black", fillcolor="white", style="filled",URL="$ILinearDataStructure_8hpp.html",tooltip=" "];
  Node6 -> Node7 [color="midnightblue",fontsize="10",style="solid",fontname="Helvetica"];
  Node7 [label="ostream",height=0.2,width=0.4,color="grey75", fillcolor="white", style="filled",tooltip=" "];
  Node5 -> Node8 [color="midnightblue",fontsize="10",style="solid",fontname="Helvetica"];
  Node8 [label="../../Utilities/StringUtil.hpp",height=0.2,width=0.4,color="black", fillcolor="white", style="filled",URL="$StringUtil_8hpp.html",tooltip=" "];
  Node8 -> Node3 [color="midnightblue",fontsize="10",style="solid",fontname="Helvetica"];
  Node8 -> Node9 [color="midnightblue",fontsize="10",style="solid",fontname="Helvetica"];
  Node9 [label="sstream",height=0.2,width=0.4,color="grey75", fillcolor="white", style="filled",tooltip=" "];
  Node8 -> Node10 [color="midnightblue",fontsize="10",style="solid",fontname="Helvetica"];
  Node10 [label="vector",height=0.2,width=0.4,color="grey75", fillcolor="white", style="filled",tooltip=" "];
  Node5 -> Node11 [color="midnightblue",fontsize="10",style="solid",fontname="Helvetica"];
  Node11 [label="../../Exceptions/NotImplemented\lException.hpp",height=0.2,width=0.4,color="black", fillcolor="white", style="filled",URL="$NotImplementedException_8hpp.html",tooltip=" "];
  Node11 -> Node12 [color="midnightblue",fontsize="10",style="solid",fontname="Helvetica"];
  Node12 [label="stdexcept",height=0.2,width=0.4,color="grey75", fillcolor="white", style="filled",tooltip=" "];
  Node11 -> Node3 [color="midnightblue",fontsize="10",style="solid",fontname="Helvetica"];
  Node5 -> Node13 [color="midnightblue",fontsize="10",style="solid",fontname="Helvetica"];
  Node13 [label="../../Exceptions/Structure\lFullException.hpp",height=0.2,width=0.4,color="black", fillcolor="white", style="filled",URL="$StructureFullException_8hpp.html",tooltip=" "];
  Node13 -> Node12 [color="midnightblue",fontsize="10",style="solid",fontname="Helvetica"];
  Node13 -> Node3 [color="midnightblue",fontsize="10",style="solid",fontname="Helvetica"];
  Node5 -> Node14 [color="midnightblue",fontsize="10",style="solid",fontname="Helvetica"];
  Node14 [label="../../Exceptions/Structure\lEmptyException.hpp",height=0.2,width=0.4,color="black", fillcolor="white", style="filled",URL="$StructureEmptyException_8hpp.html",tooltip=" "];
  Node14 -> Node12 [color="midnightblue",fontsize="10",style="solid",fontname="Helvetica"];
  Node14 -> Node3 [color="midnightblue",fontsize="10",style="solid",fontname="Helvetica"];
  Node5 -> Node15 [color="midnightblue",fontsize="10",style="solid",fontname="Helvetica"];
  Node15 [label="../../Exceptions/Invalid\lIndexException.hpp",height=0.2,width=0.4,color="black", fillcolor="white", style="filled",URL="$InvalidIndexException_8hpp.html",tooltip=" "];
  Node15 -> Node12 [color="midnightblue",fontsize="10",style="solid",fontname="Helvetica"];
  Node15 -> Node3 [color="midnightblue",fontsize="10",style="solid",fontname="Helvetica"];
  Node5 -> Node16 [color="midnightblue",fontsize="10",style="solid",fontname="Helvetica"];
  Node16 [label="../../Exceptions/ItemNot\lFoundException.hpp",height=0.2,width=0.4,color="black", fillcolor="white", style="filled",URL="$ItemNotFoundException_8hpp.html",tooltip=" "];
  Node16 -> Node12 [color="midnightblue",fontsize="10",style="solid",fontname="Helvetica"];
  Node16 -> Node3 [color="midnightblue",fontsize="10",style="solid",fontname="Helvetica"];
  Node5 -> Node17 [color="midnightblue",fontsize="10",style="solid",fontname="Helvetica"];
  Node17 [label="../../Exceptions/Nullptr\lException.hpp",height=0.2,width=0.4,color="black", fillcolor="white", style="filled",URL="$NullptrException_8hpp.html",tooltip=" "];
  Node17 -> Node12 [color="midnightblue",fontsize="10",style="solid",fontname="Helvetica"];
  Node17 -> Node3 [color="midnightblue",fontsize="10",style="solid",fontname="Helvetica"];
  Node5 -> Node2 [color="midnightblue",fontsize="10",style="solid",fontname="Helvetica"];
  Node4 -> Node18 [color="midnightblue",fontsize="10",style="solid",fontname="Helvetica"];
  Node18 [label="../../Utilities/Logger.hpp",height=0.2,width=0.4,color="black", fillcolor="white", style="filled",URL="$Logger_8hpp.html",tooltip=" "];
  Node18 -> Node19 [color="midnightblue",fontsize="10",style="solid",fontname="Helvetica"];
  Node19 [label="chrono",height=0.2,width=0.4,color="grey75", fillcolor="white", style="filled",tooltip=" "];
  Node18 -> Node2 [color="midnightblue",fontsize="10",style="solid",fontname="Helvetica"];
  Node18 -> Node20 [color="midnightblue",fontsize="10",style="solid",fontname="Helvetica"];
  Node20 [label="fstream",height=0.2,width=0.4,color="grey75", fillcolor="white", style="filled",tooltip=" "];
  Node18 -> Node3 [color="midnightblue",fontsize="10",style="solid",fontname="Helvetica"];
  Node18 -> Node21 [color="midnightblue",fontsize="10",style="solid",fontname="Helvetica"];
  Node21 [label="iomanip",height=0.2,width=0.4,color="grey75", fillcolor="white", style="filled",tooltip=" "];
  Node4 -> Node11 [color="midnightblue",fontsize="10",style="solid",fontname="Helvetica"];
  Node4 -> Node13 [color="midnightblue",fontsize="10",style="solid",fontname="Helvetica"];
  Node4 -> Node15 [color="midnightblue",fontsize="10",style="solid",fontname="Helvetica"];
  Node4 -> Node17 [color="midnightblue",fontsize="10",style="solid",fontname="Helvetica"];
  Node1 -> Node22 [color="midnightblue",fontsize="10",style="solid",fontname="Helvetica"];
  Node22 [label="LinkedStack.hpp",height=0.2,width=0.4,color="black", fillcolor="white", style="filled",URL="$LinkedStack_8hpp.html",tooltip=" "];
  Node22 -> Node23 [color="midnightblue",fontsize="10",style="solid",fontname="Helvetica"];
  Node23 [label="../LinkedList/LinkedList.hpp",height=0.2,width=0.4,color="black", fillcolor="white", style="filled",URL="$LinkedList_8hpp.html",tooltip=" "];
  Node23 -> Node6 [color="midnightblue",fontsize="10",style="solid",fontname="Helvetica"];
  Node23 -> Node24 [color="midnightblue",fontsize="10",style="solid",fontname="Helvetica"];
  Node24 [label="LinkedListNode.hpp",height=0.2,width=0.4,color="black", fillcolor="white", style="filled",URL="$LinkedListNode_8hpp.html",tooltip=" "];
  Node23 -> Node11 [color="midnightblue",fontsize="10",style="solid",fontname="Helvetica"];
  Node23 -> Node15 [color="midnightblue",fontsize="10",style="solid",fontname="Helvetica"];
  Node23 -> Node17 [color="midnightblue",fontsize="10",style="solid",fontname="Helvetica"];
  Node23 -> Node18 [color="midnightblue",fontsize="10",style="solid",fontname="Helvetica"];
  Node23 -> Node8 [color="midnightblue",fontsize="10",style="solid",fontname="Helvetica"];
  Node23 -> Node13 [color="midnightblue",fontsize="10",style="solid",fontname="Helvetica"];
  Node23 -> Node14 [color="midnightblue",fontsize="10",style="solid",fontname="Helvetica"];
  Node23 -> Node16 [color="midnightblue",fontsize="10",style="solid",fontname="Helvetica"];
  Node23 -> Node2 [color="midnightblue",fontsize="10",style="solid",fontname="Helvetica"];
  Node23 -> Node3 [color="midnightblue",fontsize="10",style="solid",fontname="Helvetica"];
  Node23 -> Node12 [color="midnightblue",fontsize="10",style="solid",fontname="Helvetica"];
  Node22 -> Node18 [color="midnightblue",fontsize="10",style="solid",fontname="Helvetica"];
  Node22 -> Node11 [color="midnightblue",fontsize="10",style="solid",fontname="Helvetica"];
  Node22 -> Node15 [color="midnightblue",fontsize="10",style="solid",fontname="Helvetica"];
  Node22 -> Node17 [color="midnightblue",fontsize="10",style="solid",fontname="Helvetica"];
  Node1 -> Node25 [color="midnightblue",fontsize="10",style="solid",fontname="Helvetica"];
  Node25 [label="../../cutest/TesterBase.hpp",height=0.2,width=0.4,color="black", fillcolor="white", style="filled",URL="$TesterBase_8hpp.html",tooltip=" "];
  Node25 -> Node3 [color="midnightblue",fontsize="10",style="solid",fontname="Helvetica"];
  Node25 -> Node26 [color="midnightblue",fontsize="10",style="solid",fontname="Helvetica"];
  Node26 [label="list",height=0.2,width=0.4,color="grey75", fillcolor="white", style="filled",tooltip=" "];
  Node25 -> Node10 [color="midnightblue",fontsize="10",style="solid",fontname="Helvetica"];
  Node25 -> Node27 [color="midnightblue",fontsize="10",style="solid",fontname="Helvetica"];
  Node27 [label="functional",height=0.2,width=0.4,color="grey75", fillcolor="white", style="filled",tooltip=" "];
  Node25 -> Node20 [color="midnightblue",fontsize="10",style="solid",fontname="Helvetica"];
  Node1 -> Node28 [color="midnightblue",fontsize="10",style="solid",fontname="Helvetica"];
  Node28 [label="../../Utilities/Menu.hpp",height=0.2,width=0.4,color="black", fillcolor="white", style="filled",URL="$Menu_8hpp.html",tooltip=" "];
  Node28 -> Node2 [color="midnightblue",fontsize="10",style="solid",fontname="Helvetica"];
  Node28 -> Node21 [color="midnightblue",fontsize="10",style="solid",fontname="Helvetica"];
  Node28 -> Node3 [color="midnightblue",fontsize="10",style="solid",fontname="Helvetica"];
  Node28 -> Node10 [color="midnightblue",fontsize="10",style="solid",fontname="Helvetica"];
  Node28 -> Node29 [color="midnightblue",fontsize="10",style="solid",fontname="Helvetica"];
  Node29 [label="cstdlib",height=0.2,width=0.4,color="grey75", fillcolor="white", style="filled",tooltip=" "];
  Node28 -> Node30 [color="midnightblue",fontsize="10",style="solid",fontname="Helvetica"];
  Node30 [label="limits",height=0.2,width=0.4,color="grey75", fillcolor="white", style="filled",tooltip=" "];
  Node28 -> Node31 [color="midnightblue",fontsize="10",style="solid",fontname="Helvetica"];
  Node31 [label="map",height=0.2,width=0.4,color="grey75", fillcolor="white", style="filled",tooltip=" "];
  Node28 -> Node27 [color="midnightblue",fontsize="10",style="solid",fontname="Helvetica"];
  Node1 -> Node8 [color="midnightblue",fontsize="10",style="solid",fontname="Helvetica"];
  Node1 -> Node11 [color="midnightblue",fontsize="10",style="solid",fontname="Helvetica"];
  Node1 -> Node15 [color="midnightblue",fontsize="10",style="solid",fontname="Helvetica"];
  Node1 -> Node17 [color="midnightblue",fontsize="10",style="solid",fontname="Helvetica"];
}
